<svg id="Groupe_18" data-name="Groupe 18" xmlns="http://www.w3.org/2000/svg" xmlns:xlink="http://www.w3.org/1999/xlink" width="25.794" height="25.786" viewBox="0 0 25.794 25.786">
  <defs>
    <clipPath id="clip-path">
      <rect id="Rectangle_41" data-name="Rectangle 41" width="25.794" height="25.786" fill="#333132"/>
    </clipPath>
  </defs>
  <g id="Groupe_17" data-name="Groupe 17" clip-path="url(#clip-path)">
    <path id="Tracé_23" data-name="Tracé 23" d="M0,13.853V11.94q.075-.518.151-1.036A12.285,12.285,0,0,1,2.71,4.98,12.635,12.635,0,0,1,10.662.2a12.969,12.969,0,0,1,4.774.052A12.231,12.231,0,0,1,20.493,2.48a12.649,12.649,0,0,1,5.27,9.64,12.241,12.241,0,0,1-.619,4.83,12.791,12.791,0,0,1-5.13,6.7,12.258,12.258,0,0,1-5.156,1.987c-.337.047-.674.1-1.011.147H11.984c-.239-.034-.48-.06-.717-.1-.671-.125-1.34-.256-2.056-.394.107-.186.179-.315.256-.441A9.5,9.5,0,0,0,10.559,22.4c.2-.751.383-1.507.576-2.26.1-.38.2-.759.311-1.186a3.281,3.281,0,0,0,1.856,1.39,5.074,5.074,0,0,0,3.328-.122,6.72,6.72,0,0,0,3.859-3.579A10.406,10.406,0,0,0,21.5,12.909a8.232,8.232,0,0,0-.119-2.7A7.342,7.342,0,0,0,17.033,5.1a9.193,9.193,0,0,0-5.216-.644A8.618,8.618,0,0,0,5.77,7.858a7.192,7.192,0,0,0-.935,7.532,3.543,3.543,0,0,0,1.92,1.9c.384.165.583.072.7-.325.078-.273.128-.555.217-.824a.991.991,0,0,0-.181-.961,4.439,4.439,0,0,1-.533-.932,4.872,4.872,0,0,1-.092-3.064A5.913,5.913,0,0,1,10.155,7.13a6.963,6.963,0,0,1,4.3-.467,4.571,4.571,0,0,1,3.908,4.187,9.851,9.851,0,0,1-.395,3.8,6.388,6.388,0,0,1-1.585,2.816,2.847,2.847,0,0,1-2.627.811A1.972,1.972,0,0,1,12.3,15.7c.274-1.008.591-2,.866-3.012a3.819,3.819,0,0,0,.132-2.127,1.594,1.594,0,0,0-1.469-1.2,2.055,2.055,0,0,0-1.958,1,4.53,4.53,0,0,0-.392,4.07,1.036,1.036,0,0,1,.074.5c-.414,1.8-.83,3.6-1.276,5.394a14.176,14.176,0,0,0-.556,4.241.564.564,0,0,1-.027.128c-.057-.021-.1-.033-.132-.049A12.158,12.158,0,0,1,5.05,23.131a12.792,12.792,0,0,1-4.9-8.238c-.055-.346-.1-.693-.149-1.04" transform="translate(0 0)" fill="#333132"/>
  </g>
</svg>
